…
``` r
dat1 %>%
  group_by(State_Name) %>%
  summarize(sample_size=n()) %>%
  arrange(-sample_size)
```

    ## # A tibble: 49 x 2
    ##    State_Name     sample_size
    ##    <fct>                <int>
    ##  1 Texas                  508
    ##  2 Georgia                445
    ##  3 Virginia               387
    ##  4 Illinois               345
    ##  5 Missouri               307
    ##  6 Kentucky               303
    ##  7 North Carolina         303
    ##  8 Ohio                   301
    ##  9 Indiana                291
    ## 10 Minnesota              291
    ## # ... with 39 more rows
…
